Pakistan Demographic and Health Survey 2017-18 Births Recode Data — PKBR71 • PDHSData
…
    S451ATalked about using FP method when delivery was at home or other place non private/public

    S469AReason stop breastfeeding

    References

National Institute of Population Studies (NIPS), Pakistan (http://nips.org.pk/Home.htm).

    Examples

load("PKBR71")
#> Warning: cannot open compressed file 'PKBR71', probable reason 'No such file or directory'
#> Error in readChar(con, 5L, useBytes = TRUE): cannot open the connection
PKBR71
#> # A tibble: 50,495 x 1,186
#>    CASEID  BIDX V000   V001  V002  V003  V004   V005  V006  V007  V008 V008A
#>    <fct>  <int> <fct> <int> <int> <int> <int>  <int> <int> <int> <int> <int>
#>  1 "    …     1 PK7       1     1     2     1 868683     2  2018  1418 43135
#>  2 "    …     2 PK7       1     1     2     1 868683     2  2018  1418 43135
#>  3 "    …     3 PK7       1     1     2     1 868683     2  2018  1418 43135
#>  4 "    …     4 PK7       1     1     2     1 868683     2  2018  1418 43135
#>  5 "    …     5 PK7       1     1     2     1 868683     2  2018  1418 43135
#>  6 "    …     1 PK7       1     4     1     1 868683     2  2018  1418 43134
#>  7 "    …     2 PK7       1     4     1     1 868683     2  2018  1418 43134
#>  8 "    …     3 PK7       1     4     1     1 868683     2  2018  1418 43134
#>  9 "    …     4 PK7       1     4     1     1 868683     2  2018  1418 43134
#> 10 "    …     5 PK7       1     4     1     1 868683     2  2018  1418 43134
#> # … with 50,485 more rows, and 1,174 more variables: V009 <int>, V010 <int>,
#> #   V011 <int>, V012 <int>, V013 <fct>, V014 <fct>, V015 <fct>, V016 <int>,
#> #   V017 <int>, V018 <fct>, V019 <fct>, V019A <fct>, V020 <fct>, V021 <int>,
#> #   V022 <fct>, V023 <fct>, V024 <fct>, V025 <fct>, V026 <fct>, V027 <int>,
#> #   V028 <int>, V029 <int>, V030 <int>, V031 <int>, V032 <int>, V034 <fct>,
#> #   V040 <int>, V042 <fct>, V044 <fct>, V045A <fct>, V045B <fct>, V045C <fct>,
#> #   V046 <fct>, V101 <fct>, V102 <fct>, V103 <fct>, V104 <fct>, V105 <fct>,
#> #   V105A <fct>, V106 <fct>, V107 <fct>, V113 <fct>, V115 <fct>, V116 <fct>,
#> #   V119 <fct>, V120 <fct>, V121 <fct>, V122 <fct>, V123 <fct>, V124 <fct>,
…
