Pakistan Demographic and Health Survey 2017-18 Couples' Recode Data — PKCR71 • PDHSData
…
    S215DI.22Imputed day of birth

    S215DI.23Imputed day of birth

    S215DI.24Imputed day of birth

    References

National Institute of Population Studies (NIPS), Pakistan (http://nips.org.pk/Home.htm).

    Examples

data("PKCR71")
PKCR71
#> # A tibble: 3,334 x 3,211
#>    CASEID V000   V001  V002  V003  V004   V005  V006  V007  V008 V008A  V009
#>    <fct>  <fct> <int> <int> <int> <int>  <int> <int> <int> <int> <int> <int>
#>  1 "    … PK7       1     1     2     1 868683     2  2018  1418 43135    12
#>  2 "    … PK7       1     7     2     1 868683     2  2018  1418 43133     1
#>  3 "    … PK7       1    10     2     1 868683     2  2018  1418 43134     4
#>  4 "    … PK7       1    10     7     1 868683     2  2018  1418 43134     2
#>  5 "    … PK7       1    21     4     1 868683     2  2018  1418 43133    10
#>  6 "    … PK7       2     1     2     2  75017     2  2018  1418 43136     1
#>  7 "    … PK7       2     4     2     2  75017     2  2018  1418 43136     6
#>  8 "    … PK7       2    18     5     2  75017     2  2018  1418 43137    10
#>  9 "    … PK7       2    21     2     2  75017     2  2018  1418 43137     7
#> 10 "    … PK7       2    24     2     2  75017     2  2018  1418 43137    10
#> # … with 3,324 more rows, and 3,199 more variables: V010 <int>, V011 <int>,
#> #   V012 <int>, V013 <fct>, V014 <fct>, V015 <fct>, V016 <int>, V017 <int>,
#> #   V018 <fct>, V019 <fct>, V019A <fct>, V020 <fct>, V021 <int>, V022 <fct>,
#> #   V023 <fct>, V024 <fct>, V025 <fct>, V026 <fct>, V027 <int>, V028 <int>,
#> #   V029 <int>, V030 <int>, V031 <int>, V032 <int>, V034 <fct>, V040 <int>,
#> #   V042 <fct>, V044 <fct>, V045A <fct>, V045B <fct>, V045C <fct>, V046 <fct>,
#> #   MV000 <fct>, MV001 <int>, MV002 <int>, MV003 <int>, MV004 <int>,
#> #   MV005 <int>, MV006 <int>, MV007 <int>, MV008 <int>, MV008A <int>,
#> #   MV009 <int>, MV010 <int>, MV011 <int>, MV012 <int>, MV013 <fct>,
…
