Pakistan Demographic and Health Survey 1990-91 Couples' Recode Data — PKCR21 • PDHSData
…
    hs422ideal age marriage - girls
      
    hs423can wife go to hospital alone?

    References

National Institute of Population Studies (NIPS), Pakistan (http://nips.org.pk/Home.htm).

    Examples

load("PKCR21")
#> Warning: cannot open compressed file 'PKCR21', probable reason 'No such file or directory'
#> Error in readChar(con, 5L, useBytes = TRUE): cannot open the connection
PKCR21
#> # A tibble: 1,365 x 1,149
#>    caseid v000    v001  v002  v003  v004   v005  v006  v007  v008  v009  v010
#>    <chr>  <chr>  <int> <int> <int> <int>  <int> <int> <int> <int> <int> <int>
#>  1 "   1… PK2   1.10e6     7     2     1 1.10e6    12    90  1092     5    63
#>  2 "   1… PK2   1.10e6    10     3     1 1.10e6    12    90  1092     3    71
#>  3 "   1… PK2   1.10e6    10     4     1 1.10e6    12    90  1092     5    68
#>  4 "   1… PK2   1.10e6    13     2     1 1.10e6    12    90  1092     3    55
#>  5 "   1… PK2   1.10e6     8     2     2 9.99e5     3    91  1095    12    58
#>  6 "   1… PK2   1.10e6    17     2     2 9.99e5     3    91  1095     8    53
#>  7 "   1… PK2   1.10e6     2     2     3 1.24e6     2    91  1094     7    53
#>  8 "   1… PK2   1.10e6    11     2     3 1.24e6     2    91  1094     7    56
#>  9 "   1… PK2   1.10e6    14     2     3 1.24e6     2    91  1094     5    59
#> 10 "   1… PK2   1.10e6     5     2     4 9.32e5     2    91  1094     7    59
#> # … with 1,355 more rows, and 1,137 more variables: v011 <int>, v012 <int>,
#> #   v013 <fct>, v014 <fct>, v015 <fct>, v016 <int>, v017 <int>, v018 <fct>,
#> #   v019 <fct>, v020 <fct>, v021 <int>, v022 <int>, v023 <fct>, v024 <fct>,
#> #   v025 <fct>, v026 <fct>, v027 <int>, v028 <int>, v029 <int>, v101 <fct>,
#> #   v102 <fct>, v103 <fct>, v104 <int>, v105 <fct>, v106 <fct>, v107 <int>,
#> #   v108 <fct>, v109 <fct>, v110 <fct>, v111 <int>, v112 <fct>, v113 <fct>,
#> #   v114 <fct>, v115 <int>, v116 <fct>, v119 <fct>, v120 <fct>, v121 <fct>,
#> #   v122 <fct>, v123 <fct>, v124 <fct>, v125 <int>, v127 <int>, v128 <fct>,
#> #   v129 <fct>, v130 <int>, v131 <int>, v133 <int>, v134 <fct>, v135 <fct>,
…
