Pakistan Demographic and Health Survey 2006-07 Household Recode Data — PKHR52 • PDHSData
…
    sh32f.5cmc flag
                                                  
    sh32f.6cmc flag

    References

National Institute of Population Studies (NIPS), Pakistan (http://nips.org.pk/Home.htm).

    Examples

load("PKHR52")
#> Warning: cannot open compressed file 'PKHR52', probable reason 'No such file or directory'
#> Error in readChar(con, 5L, useBytes = TRUE): cannot open the connection
PKHR52
#> # A tibble: 95,441 x 332
#>    hhid  hv000 hv001 hv002 hv003 hv004  hv005 hv006 hv007 hv008 hv009 hv010
#>    <chr> <chr> <int> <int> <int> <int>  <int> <int> <int> <int> <int> <int>
#>  1 "   … PK5       1     1     2     1 0.         2  2007  1286     7     0
#>  2 "   … PK5       1     2     2     1 0.         2  2007  1286     7     0
#>  3 "   … PK5       1     3     1     1 0.         2  2007  1286     1     0
#>  4 "   … PK5       1     4     1     1 0.         2  2007  1286     7     0
#>  5 "   … PK5       1     5     4     1 0.         2  2007  1286     4     0
#>  6 "   … PK5       1     6     2     1 0.         2  2007  1286     5     0
#>  7 "   … PK5       1     7     3     1 1.17e6     2  2007  1286     7     1
#>  8 "   … PK5       1     8     2     1 0.         2  2007  1286    19     0
#>  9 "   … PK5       1     9     2     1 0.         2  2007  1286     6     0
#> 10 "   … PK5       1    11     1     1 0.         2  2007  1286     8     0
#> # … with 95,431 more rows, and 320 more variables: hv011 <int>, hv012 <int>,
#> #   hv013 <int>, hv014 <int>, hv015 <fct>, hv016 <int>, hv017 <int>,
#> #   hv018 <int>, hv019 <int>, hv020 <fct>, hv021 <int>, hv022 <int>,
#> #   hv023 <fct>, hv024 <fct>, hv025 <fct>, hv026 <fct>, hv027 <fct>,
#> #   hv028 <int>, hv030 <int>, hv031 <int>, hv032 <int>, hv033 <int>,
#> #   hv035 <int>, hv040 <int>, hv041 <int>, hv042 <fct>, hv043 <fct>,
#> #   hv044 <fct>, hv201 <fct>, hv202 <fct>, hv204 <int>, hv205 <fct>,
#> #   hv206 <fct>, hv207 <fct>, hv208 <fct>, hv209 <fct>, hv210 <fct>,
#> #   hv211 <fct>, hv212 <fct>, hv213 <fct>, hv214 <fct>, hv215 <fct>,
…
