Pakistan Demographic and Health Survey 2012-13 Household Recode Data — PKHR61 • PDHSData
…
    sh33n.09Traveled to - Number

    sh33n.10Traveled to - Number

    References

National Institute of Population Studies (NIPS), Pakistan (http://nips.org.pk/Home.htm).

    Examples

load("PKHR61")
#> Warning: cannot open compressed file 'PKHR61', probable reason 'No such file or directory'
#> Error in readChar(con, 5L, useBytes = TRUE): cannot open the connection
PKHR61
#> # A tibble: 12,943 x 3,196
#>    hhid  hv000 hv001 hv002 hv003 hv004  hv005 hv006 hv007 hv008 hv009 hv010
#>    <chr> <chr> <int> <int> <int> <int>  <int> <int> <int> <int> <int> <int>
#>  1 1 1   PK6       1     1     1     1 2.26e6    11  2012  1355     3     0
#>  2 1 2   PK6       1     2     2     1 2.26e6    11  2012  1355    11     1
#>  3 1 3   PK6       1     3     1     1 2.26e6    11  2012  1355     5     1
#>  4 1 5   PK6       1     5     2     1 2.26e6    11  2012  1355     7     1
#>  5 1 6   PK6       1     6     2     1 2.26e6    11  2012  1355     6     1
#>  6 1 7   PK6       1     7     4     1 2.26e6    11  2012  1355     8     1
#>  7 1 8   PK6       1     8     3     1 2.26e6    11  2012  1355     8     2
#>  8 1 9   PK6       1     9     6     1 2.26e6    11  2012  1355    10     2
#>  9 110   PK6       1    10     2     1 2.26e6    11  2012  1355     6     1
#> 10 111   PK6       1    11     2     1 2.26e6    11  2012  1355     3     1
#> # … with 12,933 more rows, and 3,184 more variables: hv011 <int>, hv012 <int>,
#> #   hv013 <int>, hv014 <int>, hv015 <fct>, hv016 <int>, hv017 <int>,
#> #   hv018 <int>, hv019 <int>, hv020 <fct>, hv021 <int>, hv022 <int>,
#> #   hv023 <fct>, hv024 <fct>, hv025 <fct>, hv026 <fct>, hv027 <fct>,
#> #   hv028 <int>, hv030 <int>, hv031 <int>, hv032 <int>, hv035 <int>,
#> #   hv040 <int>, hv041 <int>, hv042 <fct>, hv044 <fct>, hv201 <int>,
#> #   hv202 <fct>, hv204 <int>, hv205 <int>, hv206 <int>, hv207 <int>,
#> #   hv208 <int>, hv209 <int>, hv210 <int>, hv211 <int>, hv212 <int>,
#> #   hv213 <int>, hv214 <int>, hv215 <int>, hv216 <int>, hv217 <fct>,
…
