Pakistan Demographic and Health Survey 2017-18 Household Recode Data — PKHR71 • PDHSData
…
    SH41A.09Money sent or received last year

    SH41A.10Money sent or received last year

    References

National Institute of Population Studies (NIPS), Pakistan (http://nips.org.pk/Home.htm).

    Examples

load("PKHR71")
#> Warning: cannot open compressed file 'PKHR71', probable reason 'No such file or directory'
#> Error in readChar(con, 5L, useBytes = TRUE): cannot open the connection
PKHR71
#> # A tibble: 14,540 x 4,552
#>    HHID  HV000 HV001 HV002 HV003 HV004  HV005 HV006 HV007 HV008 HV008A HV009
#>    <fct> <fct> <int> <int> <fct> <int>  <int> <int> <int> <int>  <int> <int>
#>  1 "   … PK7       1     1 2         1 849785     2  2018  1418  43135     7
#>  2 "   … PK7       1     2 2         1 849785     2  2018  1418  43133     2
#>  3 "   … PK7       1     3 3         1 849785     2  2018  1418  43133     6
#>  4 "   … PK7       1     4 1         1 849785     2  2018  1418  43134     6
#>  5 "   … PK7       1     5 2         1 849785     2  2018  1418  43135     7
#>  6 "   … PK7       1     6 2         1 849785     2  2018  1418  43133     5
#>  7 "   … PK7       1     7 2         1 849785     2  2018  1418  43133     7
#>  8 "   … PK7       1     8 5         1 849785     2  2018  1418  43133     9
#>  9 "   … PK7       1     9 2         1 849785     2  2018  1418  43134     8
#> 10 "   … PK7       1    10 7         1 849785     2  2018  1418  43134    11
#> # … with 14,530 more rows, and 4,540 more variables: HV010 <int>, HV011 <int>,
#> #   HV012 <int>, HV013 <int>, HV014 <int>, HV015 <fct>, HV016 <int>,
#> #   HV017 <int>, HV018 <int>, HV019 <int>, HV020 <fct>, HV021 <int>,
#> #   HV022 <fct>, HV023 <fct>, HV024 <fct>, HV025 <fct>, HV026 <fct>,
#> #   HV027 <fct>, HV028 <int>, HV030 <int>, HV031 <int>, HV032 <int>,
#> #   HV035 <int>, HV040 <int>, HV041 <int>, HV042 <fct>, HV044 <fct>,
#> #   HV045A <fct>, HV045B <fct>, HV045C <fct>, HV046 <fct>, HV801 <int>,
#> #   HV802 <int>, HV803 <fct>, HV804 <int>, HV807D <int>, HV807M <int>,
#> #   HV807Y <int>, HV807C <int>, HV807A <int>, HV201 <fct>, HV202 <fct>,
…
