Pakistan Demographic and Health Survey 2017-18 Individual Recode Data — PKIR71 • PDHSData
…
    S215DI.22Imputed day of birth

    S215DI.23Imputed day of birth

    S215DI.24Imputed day of birth

    References

National Institute of Population Studies (NIPS), Pakistan (http://nips.org.pk/Home.htm).

    Examples

data("PKIR71")
PKIR71
#> # A tibble: 15,068 x 5,331
#>    CASEID V000   V001  V002  V003  V004   V005  V006  V007  V008 V008A  V009
#>    <fct>  <fct> <int> <int> <int> <int>  <int> <int> <int> <int> <int> <int>
#>  1 "    … PK7       1     1     2     1 868683     2  2018  1418 43135    12
#>  2 "    … PK7       1     4     1     1 868683     2  2018  1418 43134     6
#>  3 "    … PK7       1     5     2     1 868683     2  2018  1418 43135    10
#>  4 "    … PK7       1     6     2     1 868683     2  2018  1418 43133     5
#>  5 "    … PK7       1     7     2     1 868683     2  2018  1418 43133     1
#>  6 "    … PK7       1     8     4     1 868683     2  2018  1418 43133     4
#>  7 "    … PK7       1     8     7     1 868683     2  2018  1418 43133    10
#>  8 "    … PK7       1     9     4     1 868683     2  2018  1418 43134     1
#>  9 "    … PK7       1    10     2     1 868683     2  2018  1418 43134     4
#> 10 "    … PK7       1    10     7     1 868683     2  2018  1418 43134     2
#> # … with 15,058 more rows, and 5,319 more variables: V010 <int>, V011 <int>,
#> #   V012 <int>, V013 <fct>, V014 <fct>, V015 <fct>, V016 <int>, V017 <int>,
#> #   V018 <fct>, V019 <fct>, V019A <fct>, V020 <fct>, V021 <int>, V022 <fct>,
#> #   V023 <fct>, V024 <fct>, V025 <fct>, V026 <fct>, V027 <int>, V028 <int>,
#> #   V029 <int>, V030 <int>, V031 <int>, V032 <int>, V034 <fct>, V040 <int>,
#> #   V042 <fct>, V044 <fct>, V045A <fct>, V045B <fct>, V045C <fct>, V046 <fct>,
#> #   V101 <fct>, V102 <fct>, V103 <fct>, V104 <fct>, V105 <fct>, V105A <fct>,
#> #   V106 <fct>, V107 <fct>, V113 <fct>, V115 <fct>, V116 <fct>, V119 <fct>,
#> #   V120 <fct>, V121 <fct>, V122 <fct>, V123 <fct>, V124 <fct>, V125 <fct>,
…
