Pakistan Demographic and Health Survey 2012-13 Individual Recode Data — PKIR61 • PDHSData
…
    s225f.20Date flag for Q225C

    s225f.21Date flag for Q225C

    References

National Institute of Population Studies (NIPS), Pakistan (http://nips.org.pk/Home.htm).

    Examples

load("PKIR61")
#> Warning: cannot open compressed file 'PKIR61', probable reason 'No such file or directory'
#> Error in readChar(con, 5L, useBytes = TRUE): cannot open the connection
PKIR61
#> # A tibble: 13,558 x 4,107
#>    caseid v000   v001  v002  v003  v004   v005  v006  v007  v008  v009  v010
#>    <chr>  <chr> <int> <int> <int> <int>  <int> <int> <int> <int> <int> <int>
#>  1 1 2  2 PK6       1     2     2     1 2.15e6    11  2012  1355     2  1987
#>  2 1 3  1 PK6       1     3     1     1 2.15e6    11  2012  1355     9  1965
#>  3 1 5  2 PK6       1     5     2     1 2.15e6    11  2012  1355    10  1981
#>  4 1 6  2 PK6       1     6     2     1 2.15e6    11  2012  1355     1  1964
#>  5 1 7  4 PK6       1     7     4     1 2.15e6    11  2012  1355     1  1989
#>  6 1 8  5 PK6       1     8     5     1 2.15e6    11  2012  1355     1  1974
#>  7 1 8  8 PK6       1     8     8     1 2.15e6    11  2012  1355     4  1982
#>  8 1 9  2 PK6       1     9     2     1 2.15e6    11  2012  1355     7  1968
#>  9 1 9  6 PK6       1     9     6     1 2.15e6    11  2012  1355     4  1986
#> 10 110  2 PK6       1    10     2     1 2.15e6    11  2012  1355     4  1966
#> # … with 13,548 more rows, and 4,095 more variables: v011 <int>, v012 <int>,
#> #   v013 <fct>, v014 <fct>, v015 <fct>, v016 <int>, v017 <int>, v018 <int>,
#> #   v019 <int>, v019a <int>, v020 <fct>, v021 <int>, v022 <int>, v023 <fct>,
#> #   v024 <fct>, v025 <fct>, v026 <fct>, v027 <int>, v028 <int>, v029 <int>,
#> #   v030 <int>, v031 <int>, v032 <int>, v034 <int>, v040 <int>, v042 <fct>,
#> #   v044 <fct>, v101 <fct>, v102 <fct>, v103 <fct>, v104 <fct>, v105 <fct>,
#> #   v106 <fct>, v107 <int>, v113 <int>, v115 <int>, v116 <int>, v119 <int>,
#> #   v120 <int>, v121 <int>, v122 <int>, v123 <int>, v124 <int>, v125 <int>,
#> #   v127 <int>, v128 <int>, v129 <int>, v130 <fct>, v131 <int>, v133 <int>,
…
