Pakistan Demographic and Health Survey 1990-91 Individual Recode Data — PKIR21 • PDHSData
…
    sm423can wife go to hospital alone?
    
    sm424hcompletion time
                  
    sm424mend of interview (minutes)

    References

National Institute of Population Studies (NIPS), Pakistan (http://nips.org.pk/Home.htm).

    Examples

data("PKIR21")
PKIR21
#> # A tibble: 6,611 x 2,405
#>    caseid v000    v001  v002  v003  v004   v005  v006  v007  v008  v009  v010
#>    <chr>  <chr>  <int> <int> <int> <int>  <int> <int> <int> <int> <int> <int>
#>  1 "   1… PK2   1.10e6     1     2     1 1.10e6    12    90  1092     3    60
#>  2 "   1… PK2   1.10e6     2     2     1 1.10e6    12    90  1092    11    64
#>  3 "   1… PK2   1.10e6     3     2     1 1.10e6    12    90  1092     6    52
#>  4 "   1… PK2   1.10e6     5     2     1 1.10e6    12    90  1092     7    56
#>  5 "   1… PK2   1.10e6     6     3     1 1.10e6    12    90  1092     5    62
#>  6 "   1… PK2   1.10e6     7     2     1 1.10e6    12    90  1092     5    63
#>  7 "   1… PK2   1.10e6     8     2     1 1.10e6    12    90  1092     2    62
#>  8 "   1… PK2   1.10e6    10     3     1 1.10e6    12    90  1092     3    71
#>  9 "   1… PK2   1.10e6    10     4     1 1.10e6    12    90  1092     5    68
#> 10 "   1… PK2   1.10e6    11     1     1 1.10e6    12    90  1092    12    57
#> # … with 6,601 more rows, and 2,393 more variables: v011 <int>, v012 <int>,
#> #   v013 <fct>, v014 <fct>, v015 <fct>, v016 <int>, v017 <int>, v018 <fct>,
#> #   v019 <fct>, v020 <fct>, v021 <int>, v022 <int>, v023 <fct>, v024 <fct>,
#> #   v025 <fct>, v026 <fct>, v027 <int>, v028 <int>, v029 <int>, v101 <fct>,
#> #   v102 <fct>, v103 <fct>, v104 <int>, v105 <fct>, v106 <fct>, v107 <int>,
#> #   v108 <fct>, v109 <fct>, v110 <fct>, v111 <int>, v112 <fct>, v113 <fct>,
#> #   v114 <fct>, v115 <int>, v116 <fct>, v119 <fct>, v120 <fct>, v121 <fct>,
#> #   v122 <fct>, v123 <fct>, v124 <fct>, v125 <int>, v127 <int>, v128 <fct>,
#> #   v129 <fct>, v130 <int>, v131 <int>, v133 <int>, v134 <fct>, v135 <fct>,
…
