Pakistan Demographic and Health Survey 2006-07 Individual Recode Data — PKIR52 • PDHSData
…
    s538.4medicines for fever/cough prescribed by medical, health or p
  
    s538.5medicines for fever/cough prescribed by medical, health or p
  
    s538.6medicines for fever/cough prescribed by medical, health or p

    References

National Institute of Population Studies (NIPS), Pakistan (http://nips.org.pk/Home.htm).

    Examples

data("PKIR52")
PKIR52
#> # A tibble: 10,023 x 4,568
#>    caseid v000   v001  v002  v003  v004   v005  v006  v007  v008  v009  v010
#>    <chr>  <chr> <int> <int> <int> <int>  <int> <int> <int> <int> <int> <int>
#>  1 "    … PK5       1     7     2     1 1.20e6     2  2007  1286     8  1962
#>  2 "    … PK5       1    17     1     1 1.20e6     2  2007  1286     1  1959
#>  3 "    … PK5       1    27     4     1 1.20e6     2  2007  1286     5  1971
#>  4 "    … PK5       1    37     2     1 1.20e6     2  2007  1286    10  1970
#>  5 "    … PK5       1    47     2     1 1.20e6     2  2007  1286     3  1977
#>  6 "    … PK5       1    57     2     1 1.20e6     2  2007  1286     5  1964
#>  7 "    … PK5       1    67     2     1 1.20e6     2  2007  1286     3  1958
#>  8 "    … PK5       1    67     4     1 1.20e6     2  2007  1286     9  1980
#>  9 "    … PK5       1    67     6     1 1.20e6     2  2007  1286    11  1988
#> 10 "    … PK5       1    77     2     1 1.20e6     2  2007  1286     5  1958
#> # … with 10,013 more rows, and 4,556 more variables: v011 <int>, v012 <int>,
#> #   v013 <fct>, v014 <fct>, v015 <fct>, v016 <int>, v017 <int>, v018 <fct>,
#> #   v019 <fct>, v019a <int>, v020 <fct>, v021 <int>, v022 <int>, v023 <fct>,
#> #   v024 <fct>, v025 <fct>, v026 <fct>, v027 <int>, v028 <int>, v029 <int>,
#> #   v030 <int>, v031 <int>, v032 <int>, v033 <int>, v034 <fct>, v040 <int>,
#> #   v042 <fct>, v043 <fct>, v044 <fct>, v101 <fct>, v102 <fct>, v103 <fct>,
#> #   v104 <fct>, v105 <fct>, v106 <fct>, v107 <int>, v113 <fct>, v115 <int>,
#> #   v116 <fct>, v119 <fct>, v120 <fct>, v121 <fct>, v122 <fct>, v123 <fct>,
#> #   v124 <fct>, v125 <fct>, v127 <fct>, v128 <fct>, v129 <fct>, v130 <fct>,
…
