Pakistan Demographic and Health Survey 2006-07 Children's Recode Data — PKKR52 • PDHSData
…
      s512months ago child received a vitamin a dose
                      
      s516number of times stools passed in past 24 hours
                  
      s538medicines for fever/cough prescribed by medical, health or p

    References

National Institute of Population Studies (NIPS), Pakistan (http://nips.org.pk/Home.htm).

    Examples

data("PKKR52")
PKKR52
#> # A tibble: 9,177 x 1,139
#>    caseid  midx v000   v001  v002  v003  v004   v005  v006  v007  v008  v009
#>    <chr>  <int> <chr> <int> <int> <int> <int>  <int> <int> <int> <int> <int>
#>  1 "    …     1 PK5       1    37     2     1 1.20e6     2  2007  1286    10
#>  2 "    …     1 PK5       1    47     2     1 1.20e6     2  2007  1286     3
#>  3 "    …     1 PK5       1    67     4     1 1.20e6     2  2007  1286     9
#>  4 "    …     1 PK5       1    67     6     1 1.20e6     2  2007  1286    11
#>  5 "    …     1 PK5       2     7     5     2 1.25e6     2  2007  1286     2
#>  6 "    …     1 PK5       2    17     2     2 1.25e6     2  2007  1286    10
#>  7 "    …     1 PK5       2    57     2     2 1.25e6     2  2007  1286    10
#>  8 "    …     1 PK5       2    77     5     2 1.25e6     2  2007  1286     8
#>  9 "    …     1 PK5       3     7     2     3 1.65e6     2  2007  1286    12
#> 10 "    …     2 PK5       3     7     2     3 1.65e6     2  2007  1286    12
#> # … with 9,167 more rows, and 1,127 more variables: v010 <int>, v011 <int>,
#> #   v012 <int>, v013 <fct>, v014 <fct>, v015 <fct>, v016 <int>, v017 <int>,
#> #   v018 <fct>, v019 <fct>, v019a <int>, v020 <fct>, v021 <int>, v022 <int>,
#> #   v023 <fct>, v024 <fct>, v025 <fct>, v026 <fct>, v027 <int>, v028 <int>,
#> #   v029 <int>, v030 <int>, v031 <int>, v032 <int>, v033 <int>, v034 <fct>,
#> #   v040 <int>, v042 <fct>, v043 <fct>, v044 <fct>, v101 <fct>, v102 <fct>,
#> #   v103 <fct>, v104 <fct>, v105 <fct>, v106 <fct>, v107 <int>, v113 <int>,
#> #   v115 <int>, v116 <int>, v119 <int>, v120 <int>, v121 <int>, v122 <int>,
#> #   v123 <int>, v124 <int>, v125 <int>, v127 <int>, v128 <int>, v129 <int>,
…
