Pakistan Demographic and Health Survey 2012-13 Children's Recode Data — PKKR61 • PDHSData
…
    shb3dHepatitis B-3 day

    shb3mHepatitis B-3 month

    shb3yHepatitis B-3 year

    References

National Institute of Population Studies (NIPS), Pakistan (http://nips.org.pk/Home.htm).

    Examples

data("PKKR61")
PKKR61
#> # A tibble: 11,763 x 1,000
#>    caseid  midx v000   v001  v002  v003  v004   v005  v006  v007  v008  v009
#>    <chr>  <int> <chr> <int> <int> <int> <int>  <int> <int> <int> <int> <int>
#>  1 1 2  2     1 PK6       1     2     2     1 2.15e6    11  2012  1355     2
#>  2 1 2  2     2 PK6       1     2     2     1 2.15e6    11  2012  1355     2
#>  3 1 2  2     3 PK6       1     2     2     1 2.15e6    11  2012  1355     2
#>  4 1 2  2     4 PK6       1     2     2     1 2.15e6    11  2012  1355     2
#>  5 1 5  2     1 PK6       1     5     2     1 2.15e6    11  2012  1355    10
#>  6 1 5  2     2 PK6       1     5     2     1 2.15e6    11  2012  1355    10
#>  7 1 7  4     1 PK6       1     7     4     1 2.15e6    11  2012  1355     1
#>  8 1 9  6     1 PK6       1     9     6     1 2.15e6    11  2012  1355     4
#>  9 1 9  6     2 PK6       1     9     6     1 2.15e6    11  2012  1355     4
#> 10 1 9  6     3 PK6       1     9     6     1 2.15e6    11  2012  1355     4
#> # … with 11,753 more rows, and 988 more variables: v010 <int>, v011 <int>,
#> #   v012 <int>, v013 <fct>, v014 <fct>, v015 <fct>, v016 <int>, v017 <int>,
#> #   v018 <int>, v019 <int>, v019a <int>, v020 <fct>, v021 <int>, v022 <int>,
#> #   v023 <fct>, v024 <fct>, v025 <fct>, v026 <fct>, v027 <int>, v028 <int>,
#> #   v029 <int>, v030 <int>, v031 <int>, v032 <int>, v034 <int>, v040 <int>,
#> #   v042 <fct>, v044 <fct>, v101 <fct>, v102 <fct>, v103 <fct>, v104 <fct>,
#> #   v105 <fct>, v106 <fct>, v107 <int>, v113 <int>, v115 <int>, v116 <int>,
#> #   v119 <fct>, v120 <int>, v121 <int>, v122 <int>, v123 <int>, v124 <int>,
#> #   v125 <int>, v127 <int>, v128 <int>, v129 <int>, v130 <fct>, v131 <int>,
…
