Pakistan Demographic and Health Survey 1990-91 Children's Recode Data — PKKR21 • PDHSData
…
    s810ddate child measured (day)
       
    s810mdate child measure (month)
      
    s810ydate child measured (year)

    References

National Institute of Population Studies (NIPS), Pakistan (http://nips.org.pk/Home.htm).

    Examples

data("PKKR21")
PKKR21
#> # A tibble: 6,428 x 678
#>    case.id caseid v000    v001  v002  v003  v004   v005  v006  v007  v008  v009
#>    <chr>   <chr>  <chr>  <int> <int> <int> <int>  <int> <int> <int> <int> <int>
#>  1 "   11… "   1… PK2   1.10e6     1     2     1 1.10e6    12    90  1092     3
#>  2 "   11… "   1… PK2   1.10e6     2     2     1 1.10e6    12    90  1092    11
#>  3 "   11… "   1… PK2   1.10e6     2     2     1 1.10e6    12    90  1092    11
#>  4 "   11… "   1… PK2   1.10e6     5     2     1 1.10e6    12    90  1092     7
#>  5 "   11… "   1… PK2   1.10e6     6     3     1 1.10e6    12    90  1092     5
#>  6 "   11… "   1… PK2   1.10e6     6     3     1 1.10e6    12    90  1092     5
#>  7 "   11… "   1… PK2   1.10e6     7     2     1 1.10e6    12    90  1092     5
#>  8 "   11… "   1… PK2   1.10e6     8     2     1 1.10e6    12    90  1092     2
#>  9 "   11… "   1… PK2   1.10e6     8     2     1 1.10e6    12    90  1092     2
#> 10 "   11… "   1… PK2   1.10e6    10     3     1 1.10e6    12    90  1092     3
#> # … with 6,418 more rows, and 666 more variables: v010 <int>, v011 <int>,
#> #   v012 <int>, v013 <fct>, v014 <fct>, v015 <fct>, v016 <int>, v017 <int>,
#> #   v018 <fct>, v019 <fct>, v020 <fct>, v021 <int>, v022 <int>, v023 <fct>,
#> #   v024 <fct>, v025 <fct>, v026 <fct>, v027 <int>, v028 <int>, v029 <int>,
#> #   v101 <fct>, v102 <fct>, v103 <fct>, v104 <int>, v105 <fct>, v106 <fct>,
#> #   v107 <int>, v108 <fct>, v109 <fct>, v110 <fct>, v111 <int>, v112 <fct>,
#> #   v113 <fct>, v114 <fct>, v115 <int>, v116 <fct>, v119 <fct>, v120 <fct>,
#> #   v121 <fct>, v122 <fct>, v123 <fct>, v124 <fct>, v125 <int>, v127 <int>,
#> #   v128 <fct>, v129 <fct>, v130 <int>, v131 <int>, v133 <int>, v134 <fct>,
…
