Pakistan Demographic and Health Survey 1990-91 Men's Recode Data — PKMR21 • PDHSData
…
    hs422ideal age marriage - girls
     
    hs423can wife go to hospital alone?

    References

National Institute of Population Studies (NIPS), Pakistan (http://nips.org.pk/Home.htm).

    Examples

load("PKMR21")
#> Warning: cannot open compressed file 'PKMR21', probable reason 'No such file or directory'
#> Error in readChar(con, 5L, useBytes = TRUE): cannot open the connection
PKMR21
#> # A tibble: 1,354 x 333
#>    mcaseid mv000  mv001 mv002 mv003 mv004  mv005 mv006 mv007 mv008 mv009 mv010
#>    <chr>   <chr>  <int> <int> <int> <int>  <int> <int> <int> <int> <int> <int>
#>  1 "   11… PK3   1.10e6     7     1     1 9.89e5    12    90  1092    12    47
#>  2 "   11… PK3   1.10e6    10     2     1 9.89e5    12    90  1092     1    68
#>  3 "   11… PK3   1.10e6    10     1     1 9.89e5    12    90  1092    11    64
#>  4 "   11… PK3   1.10e6    13     1     1 9.89e5    12    90  1092     2    35
#>  5 "   11… PK3   1.10e6     8     1     2 9.53e5     3    91  1095     4    32
#>  6 "   11… PK3   1.10e6    17     1     2 9.53e5     3    91  1095     7    39
#>  7 "   11… PK3   1.10e6     2     1     3 1.11e6     2    91  1094     5    55
#>  8 "   11… PK3   1.10e6    11     1     3 1.11e6     2    91  1094     1    57
#>  9 "   11… PK3   1.10e6    14     1     3 1.11e6     2    91  1094     4    62
#> 10 "   11… PK3   1.10e6     5     1     4 8.37e5     2    91  1094    10    55
#> # … with 1,344 more rows, and 321 more variables: mv011 <int>, mv012 <int>,
#> #   mv013 <fct>, mv014 <fct>, mv015 <fct>, mv016 <int>, mv021 <int>,
#> #   mv022 <int>, mv023 <fct>, mv024 <fct>, mv025 <fct>, mv026 <fct>,
#> #   mv027 <int>, mv028 <int>, mv029 <int>, mv030 <int>, mv031 <int>,
#> #   mv032 <int>, mv033 <int>, mv034.1 <int>, mv034.2 <int>, mv034.3 <fct>,
#> #   mv034.4 <fct>, mv034.5 <fct>, mv034.6 <fct>, mv034.7 <fct>, mv034.8 <fct>,
#> #   mv035 <int>, mv801 <int>, mv802 <int>, mv803 <int>, mv101 <fct>,
#> #   mv102 <fct>, mv103 <fct>, mv104 <int>, mv105 <fct>, mv106 <fct>,
#> #   mv107 <int>, mv108 <fct>, mv109 <fct>, mv110 <fct>, mv111 <int>,
…
