Pakistan Demographic and Health Survey 2017-18 Men's Recode Data — PKMR71 • PDHSData
…
    SM815KKMonths ago tested for Hepatitis B or C

    SM817AReceive any cash/kind benefit from Benazir Income Support Program

    SMV005Men's sample weight (AJK/GB, 6 decimals)

    References

National Institute of Population Studies (NIPS), Pakistan (http://nips.org.pk/Home.htm).

    Examples

data("PKMR71")
PKMR71
#> # A tibble: 3,691 x 617
#>    MCASEID MV000 MV001 MV002 MV003 MV004  MV005 MV006 MV007 MV008 MV008A MV009
#>    <fct>   <fct> <int> <int> <int> <int>  <int> <int> <int> <int>  <int> <int>
#>  1 "     … PK7       1     1     1     1 1.00e6     2  2018  1418  43135     9
#>  2 "     … PK7       1     7     1     1 1.00e6     2  2018  1418  43133     5
#>  3 "     … PK7       1    10     1     1 1.00e6     2  2018  1418  43134     6
#>  4 "     … PK7       1    21     3     1 1.00e6     2  2018  1418  43133     9
#>  5 "     … PK7       2     1     1     2 7.99e4     2  2018  1418  43136     3
#>  6 "     … PK7       2     4     1     2 7.99e4     2  2018  1418  43136     8
#>  7 "     … PK7       2    18     4     2 7.99e4     2  2018  1418  43137     4
#>  8 "     … PK7       2    21     1     2 7.99e4     2  2018  1418  43137     6
#>  9 "     … PK7       2    24     1     2 7.99e4     2  2018  1418  43137    11
#> 10 "     … PK7       3     7     1     3 9.14e5     1  2018  1417  43122     3
#> # … with 3,681 more rows, and 605 more variables: MV010 <int>, MV011 <int>,
#> #   MV012 <int>, MV013 <fct>, MV014 <fct>, MV015 <fct>, MV016 <int>,
#> #   MV021 <int>, MV022 <fct>, MV023 <fct>, MV024 <fct>, MV025 <fct>,
#> #   MV026 <fct>, MV027 <int>, MV028 <int>, MV029 <int>, MV030 <int>,
#> #   MV031 <int>, MV032 <int>, MV034.1 <fct>, MV034.2 <fct>, MV034.3 <fct>,
#> #   MV034.4 <fct>, MV034.5 <fct>, MV034.6 <fct>, MV034.7 <fct>, MV034.8 <fct>,
#> #   MV034A.1 <fct>, MV034A.2 <fct>, MV034A.3 <fct>, MV034A.4 <fct>,
#> #   MV034A.5 <fct>, MV034A.6 <fct>, MV034A.7 <fct>, MV034A.8 <fct>,
#> #   MV034B.1 <int>, MV034B.2 <int>, MV034B.3 <int>, MV034B.4 <int>,
…
