Pakistan Demographic and Health Survey 2012-13 Men's Recode Data — PKMR61 • PDHSData
…
    sm708yAvoid getting Hepatitis by: no response

    sm708zAvoid getting Hepatitis by: don't know

    References

National Institute of Population Studies (NIPS), Pakistan (http://nips.org.pk/Home.htm).

    Examples

load("PKMR61")
#> Warning: cannot open compressed file 'PKMR61', probable reason 'No such file or directory'
#> Error in readChar(con, 5L, useBytes = TRUE): cannot open the connection
PKMR61
#> # A tibble: 3,134 x 549
#>    mcaseid mv000 mv001 mv002 mv003 mv004  mv005 mv006 mv007 mv008 mv009 mv010
#>    <chr>   <chr> <int> <int> <int> <int>  <int> <int> <int> <int> <int> <int>
#>  1 1 2  1  PK6       1     2     1     1 2.25e6    11  2012  1355     7  1984
#>  2 1 2  9  PK6       1     2     9     1 2.25e6    11  2012  1355     1  1989
#>  3 1 2 11  PK6       1     2    11     1 2.25e6    11  2012  1355     9  1992
#>  4 1 5  1  PK6       1     5     1     1 2.25e6    11  2012  1355     5  1979
#>  5 1 8  4  PK6       1     8     4     1 2.25e6    11  2012  1355     1  1971
#>  6 1 8  7  PK6       1     8     7     1 2.25e6    11  2012  1355     3  1977
#>  7 110  1  PK6       1    10     1     1 2.25e6    11  2012  1355    10  1970
#>  8 119  1  PK6       1    19     1     1 2.25e6    11  2012  1355     2  1965
#>  9 2 6  1  PK6       2     6     1     2 2.05e6    11  2012  1355     1  1982
#> 10 2 9  1  PK6       2     9     1     2 2.05e6    11  2012  1355     4  1967
#> # … with 3,124 more rows, and 537 more variables: mv011 <int>, mv012 <int>,
#> #   mv013 <fct>, mv014 <fct>, mv015 <fct>, mv016 <int>, mv021 <int>,
#> #   mv022 <int>, mv023 <fct>, mv024 <fct>, mv025 <fct>, mv026 <fct>,
#> #   mv027 <int>, mv028 <int>, mv029 <int>, mv030 <int>, mv031 <int>,
#> #   mv032 <int>, mv034.1 <fct>, mv034.2 <fct>, mv034.3 <fct>, mv034.4 <fct>,
#> #   mv034.5 <fct>, mv034.6 <fct>, mv034.7 <fct>, mv034.8 <fct>, mv034a.1 <fct>,
#> #   mv034a.2 <fct>, mv034a.3 <fct>, mv034a.4 <fct>, mv034a.5 <fct>,
#> #   mv034a.6 <fct>, mv034a.7 <fct>, mv034a.8 <fct>, mv034b.1 <int>,
#> #   mv034b.2 <int>, mv034b.3 <int>, mv034b.4 <int>, mv034b.5 <int>,
…
