Pakistan Demographic and Health Survey 2012-13 Household Member Recode Data — PKPR61 • PDHSData
…
    hc71Weight/Age standard deviation (new WHO)

    hc72Weight/Height standard deviation (new WHO)

    hc73BMI standard deviation (new WHO)

    References

National Institute of Population Studies (NIPS), Pakistan (http://nips.org.pk/Home.htm).

    Examples

data("PKPR61")
PKPR61
#> # A tibble: 94,169 x 282
#>    hhid  hvidx hv000 hv001 hv002 hv003 hv004  hv005 hv006 hv007 hv008 hv009
#>    <chr> <int> <chr> <int> <int> <int> <int>  <int> <int> <int> <int> <int>
#>  1 1 1       1 PK6       1     1     1     1 2.26e6    11  2012  1355     3
#>  2 1 1       2 PK6       1     1     1     1 2.26e6    11  2012  1355     3
#>  3 1 1       3 PK6       1     1     1     1 2.26e6    11  2012  1355     3
#>  4 1 2       1 PK6       1     2     2     1 2.26e6    11  2012  1355    11
#>  5 1 2       2 PK6       1     2     2     1 2.26e6    11  2012  1355    11
#>  6 1 2       3 PK6       1     2     2     1 2.26e6    11  2012  1355    11
#>  7 1 2       4 PK6       1     2     2     1 2.26e6    11  2012  1355    11
#>  8 1 2       5 PK6       1     2     2     1 2.26e6    11  2012  1355    11
#>  9 1 2       6 PK6       1     2     2     1 2.26e6    11  2012  1355    11
#> 10 1 2       7 PK6       1     2     2     1 2.26e6    11  2012  1355    11
#> # … with 94,159 more rows, and 270 more variables: hv010 <int>, hv011 <int>,
#> #   hv012 <int>, hv013 <int>, hv014 <int>, hv015 <fct>, hv016 <int>,
#> #   hv017 <int>, hv018 <int>, hv019 <int>, hv020 <fct>, hv021 <int>,
#> #   hv022 <int>, hv023 <fct>, hv024 <fct>, hv025 <fct>, hv026 <fct>,
#> #   hv027 <fct>, hv028 <int>, hv030 <int>, hv031 <int>, hv032 <int>,
#> #   hv035 <int>, hv040 <int>, hv041 <int>, hv042 <fct>, hv044 <fct>,
#> #   hv201 <int>, hv202 <fct>, hv204 <int>, hv205 <int>, hv206 <int>,
#> #   hv207 <int>, hv208 <int>, hv209 <int>, hv210 <int>, hv211 <int>,
#> #   hv212 <int>, hv213 <int>, hv214 <int>, hv215 <int>, hv216 <int>,
…
