Pakistan Demographic and Health Survey 1990-91 Household Member Recode Data — PKPR21 • PDHSData
…
    idxh4index to household schedule
   
    shlevellevel of education
          
    shgradehighest grade completed

    References

National Institute of Population Studies (NIPS), Pakistan (http://nips.org.pk/Home.htm).

    Examples

data("PKPR21")
PKPR21
#> # A tibble: 52,358 x 78
#>    hhid  hv000  hv001 hv002 hv003 hv004  hv005 hv006 hv007 hv008 hv009 hv010
#>    <chr> <chr>  <int> <int> <int> <int>  <int> <int> <int> <int> <int> <int>
#>  1 "   … PK2   1.10e6     1     0     1 1.01e6    12    90  1092     7     1
#>  2 "   … PK2   1.10e6     1     0     1 1.01e6    12    90  1092     7     1
#>  3 "   … PK2   1.10e6     1     0     1 1.01e6    12    90  1092     7     1
#>  4 "   … PK2   1.10e6     1     0     1 1.01e6    12    90  1092     7     1
#>  5 "   … PK2   1.10e6     1     0     1 1.01e6    12    90  1092     7     1
#>  6 "   … PK2   1.10e6     1     0     1 1.01e6    12    90  1092     7     1
#>  7 "   … PK2   1.10e6     1     0     1 1.01e6    12    90  1092     7     1
#>  8 "   … PK2   1.10e6     2     0     1 1.01e6    12    90  1092     7     1
#>  9 "   … PK2   1.10e6     2     0     1 1.01e6    12    90  1092     7     1
#> 10 "   … PK2   1.10e6     2     0     1 1.01e6    12    90  1092     7     1
#> # … with 52,348 more rows, and 66 more variables: hv011 <int>, hv012 <int>,
#> #   hv013 <int>, hv014 <int>, hv015 <fct>, hv016 <int>, hv017 <int>,
#> #   hv018 <int>, hv019 <int>, hv020 <fct>, hv021 <int>, hv022 <int>,
#> #   hv023 <fct>, hv024 <fct>, hv025 <fct>, hv026 <fct>, hv027 <fct>,
#> #   hv028 <int>, hv201 <fct>, hv202 <fct>, hv203 <fct>, hv204 <int>,
#> #   hv205 <fct>, hv206 <fct>, hv207 <fct>, hv208 <fct>, hv209 <fct>,
#> #   hv210 <fct>, hv211 <fct>, hv212 <int>, hv213 <int>, hv214 <fct>,
#> #   hv215 <fct>, hv216 <int>, hv217 <fct>, hv218 <int>, hv219 <fct>,
#> #   hv220 <int>, shdist <int>, shclust <int>, sh6e <fct>, sh6f <fct>,
…
