Pakistan Demographic and Health Survey 2006-07 Household Member Recode Data — PKPR53 • PDHSData
…
    sh26line number in household roster
                              
    sh23ccmc birth
                                                   
    sh23fcmc flag

    References

National Institute of Population Studies (NIPS), Pakistan (http://nips.org.pk/Home.htm).

    Examples

data("PKPR53")
PKPR53
#> # A tibble: 727,493 x 302
#>    hhid  hvidx hv000 hv001 hv002 hv003 hv004 hv005 hv006 hv007 hv008 hv009 hv010
#>    <chr> <int> <chr> <int> <int> <int> <int> <int> <int> <int> <int> <int> <int>
#>  1 "   …     1 PK5       1     1     2     1     0     2  2007  1286     7     0
#>  2 "   …     2 PK5       1     1     2     1     0     2  2007  1286     7     0
#>  3 "   …     3 PK5       1     1     2     1     0     2  2007  1286     7     0
#>  4 "   …     4 PK5       1     1     2     1     0     2  2007  1286     7     0
#>  5 "   …     5 PK5       1     1     2     1     0     2  2007  1286     7     0
#>  6 "   …     6 PK5       1     1     2     1     0     2  2007  1286     7     0
#>  7 "   …     7 PK5       1     1     2     1     0     2  2007  1286     7     0
#>  8 "   …     1 PK5       1     2     2     1     0     2  2007  1286     7     0
#>  9 "   …     2 PK5       1     2     2     1     0     2  2007  1286     7     0
#> 10 "   …     3 PK5       1     2     2     1     0     2  2007  1286     7     0
#> # … with 727,483 more rows, and 289 more variables: hv011 <int>, hv012 <int>,
#> #   hv013 <int>, hv014 <int>, hv015 <fct>, hv016 <int>, hv017 <int>,
#> #   hv018 <int>, hv019 <int>, hv020 <fct>, hv021 <int>, hv022 <int>,
#> #   hv023 <fct>, hv024 <fct>, hv025 <fct>, hv026 <fct>, hv027 <fct>,
#> #   hv028 <int>, hv030 <int>, hv031 <int>, hv032 <int>, hv033 <int>,
#> #   hv035 <int>, hv040 <int>, hv041 <int>, hv042 <fct>, hv043 <fct>,
#> #   hv044 <fct>, hv201 <int>, hv202 <fct>, hv204 <int>, hv205 <int>,
#> #   hv206 <int>, hv207 <int>, hv208 <int>, hv209 <int>, hv210 <int>,
#> #   hv211 <int>, hv212 <int>, hv213 <int>, hv214 <int>, hv215 <int>,
…
