Pakistan Demographic and Health Survey 2017-18 Household Member Recode Data — PKPR71 • PDHSData
…
    HDIS8Have difficulty washing all over or dressing

    HDIS9Highest degree of difficulty for any of the impairments

    References

National Institute of Population Studies (NIPS), Pakistan (http://nips.org.pk/Home.htm).

    Examples

load("PKPR71")
#> Warning: cannot open compressed file 'PKPR71', probable reason 'No such file or directory'
#> Error in readChar(con, 5L, useBytes = TRUE): cannot open the connection
PKPR71
#> # A tibble: 100,869 x 349
#>    HHID  HVIDX HV000 HV001 HV002 HV003 HV004  HV005 HV006 HV007 HV008 HV008A
#>    <fct> <int> <fct> <int> <int> <fct> <int>  <int> <int> <int> <int>  <int>
#>  1 "   …     1 PK7       1     1 2         1 849785     2  2018  1418  43135
#>  2 "   …     2 PK7       1     1 2         1 849785     2  2018  1418  43135
#>  3 "   …     3 PK7       1     1 2         1 849785     2  2018  1418  43135
#>  4 "   …     4 PK7       1     1 2         1 849785     2  2018  1418  43135
#>  5 "   …     5 PK7       1     1 2         1 849785     2  2018  1418  43135
#>  6 "   …     6 PK7       1     1 2         1 849785     2  2018  1418  43135
#>  7 "   …     7 PK7       1     1 2         1 849785     2  2018  1418  43135
#>  8 "   …     1 PK7       1     2 2         1 849785     2  2018  1418  43133
#>  9 "   …     2 PK7       1     2 2         1 849785     2  2018  1418  43133
#> 10 "   …     1 PK7       1     3 3         1 849785     2  2018  1418  43133
#> # … with 100,859 more rows, and 337 more variables: HV009 <int>, HV010 <int>,
#> #   HV011 <int>, HV012 <int>, HV013 <int>, HV014 <int>, HV015 <fct>,
#> #   HV016 <int>, HV017 <int>, HV018 <int>, HV019 <int>, HV020 <fct>,
#> #   HV021 <int>, HV022 <fct>, HV023 <fct>, HV024 <fct>, HV025 <fct>,
#> #   HV026 <fct>, HV027 <fct>, HV028 <int>, HV030 <int>, HV031 <int>,
#> #   HV032 <int>, HV035 <int>, HV040 <int>, HV041 <int>, HV042 <fct>,
#> #   HV044 <fct>, HV045A <fct>, HV045B <fct>, HV045C <fct>, HV046 <fct>,
#> #   HV801 <int>, HV802 <int>, HV803 <fct>, HV804 <int>, HV807D <int>,
#> #   HV807M <int>, HV807Y <int>, HV807C <int>, HV807A <int>, HV201 <fct>,
…
