Pakistan Demographic and Health Survey 2006-07 Vaccination of Children Data — PKVC51 • PDHSData
…
    c953breasons for satisfactions(2)
                                    
    c953creasons for satisfactions(3)

    References

National Institute of Population Studies (NIPS), Pakistan (http://nips.org.pk/Home.htm).

    Examples

load("PKVC51")
#> Warning: cannot open compressed file 'PKVC51', probable reason 'No such file or directory'
#> Error in readChar(con, 5L, useBytes = TRUE): cannot open the connection
PKVC51
#> # A tibble: 4,438 x 579
#>    qhclust qhnumber qqtype qline rec.type qcluster qnumber qregion qdist qlocal3
#>      <int>    <int> <fct>  <int> <chr>       <int>   <int> <fct>   <int> <fct>  
#>  1       1       89 still…     2 CVA             1      89 punjab      1 other …
#>  2       2       32 still…     1 CVA             2      32 punjab      1 other …
#>  3       2       60 still…     1 CVA             2      60 punjab      1 other …
#>  4       3       50 still…     3 CVA             3      50 punjab      1 rural  
#>  5       3       50 child…     1 CVA             3      50 punjab      1 rural  
#>  6       3       50 child…     2 CVA             3      50 punjab      1 rural  
#>  7       3       54 child…     1 CVA             3      54 punjab      1 rural  
#>  8       3       54 child…     2 CVA             3      54 punjab      1 rural  
#>  9       3       76 child…     1 CVA             3      76 punjab      1 rural  
#> 10       4        2 child…     1 CVA             4       2 punjab      1 rural  
#> # … with 4,428 more rows, and 569 more variables: qlocal4 <fct>, typeq <chr>,
#> #   qintd <int>, qintm <int>, qinty <int>, qintnum <int>, qresult <fct>,
#> #   qvisits <int>, qqlang <fct>, qilang <fct>, qwlang <fct>, qsuperv <int>,
#> #   qfedit <int>, qoedit <int>, qkeyer <int>, qintc <int>, qweight <int>,
#> #   qtype <fct>, qres <fct>, c101.1 <int>, c101.2 <int>, c101.3 <int>,
#> #   c101.4 <int>, c101.5 <int>, c101.6 <int>, c103.1 <int>, c103.2 <int>,
#> #   c103.3 <int>, c103.4 <int>, c103.5 <int>, c103.6 <int>, c104.1 <int>,
#> #   c104.2 <int>, c104.3 <int>, c104.4 <int>, c104.5 <int>, c104.6 <int>,
#> #   c105.1 <int>, c105.2 <int>, c105.3 <int>, c105.4 <int>, c105.5 <int>,
…
