Pakistan Demographic and Health Survey 2006-07 Vaccination of Women Data — PKVW51 • PDHSData
…
    m904hurt herself intentionally or someone else did this
             
    m905think that was trying to commit suicide
                         
    m906think that injury was the main cause of her death

    References

National Institute of Population Studies (NIPS), Pakistan (http://nips.org.pk/Home.htm).

    Examples

data("PKVW51")
PKVW51
#> # A tibble: 1,062 x 500
#>    qhclust qhnumber qqtype qline rec.type qcluster qnumber qregion qdist qlocal3
#>      <int>    <int> <fct>  <int> <chr>       <int>   <int> <fct>   <int> <fct>  
#>  1       1       34 woman…     1 WVA             1      34 punjab      1 other …
#>  2       1       87 woman…     1 WVA             1      87 punjab      1 other …
#>  3       2       93 woman…     1 WVA             2      93 punjab      1 other …
#>  4       4       64 woman…     1 WVA             4      64 punjab      1 rural  
#>  5       7        5 woman…     2 WVA             7       5 punjab      1 rural  
#>  6       7        5 woman…     3 WVA             7       5 punjab      1 rural  
#>  7       7       40 woman…     1 WVA             7      40 punjab      1 rural  
#>  8       7       81 woman…     1 WVA             7      81 punjab      1 rural  
#>  9       7       88 woman…     1 WVA             7      88 punjab      1 rural  
#> 10       7       97 woman…     2 WVA             7      97 punjab      1 rural  
#> # … with 1,052 more rows, and 490 more variables: qlocal4 <fct>, typeq <chr>,
#> #   qintd <int>, qintm <int>, qinty <int>, qintnum <int>, qresult <fct>,
#> #   qvisits <int>, qqlang <fct>, qilang <fct>, qwlang <fct>, qsuperv <int>,
#> #   qfedit <int>, qoedit <int>, qkeyer <int>, qintc <int>, qweight <int>,
#> #   qtype <fct>, qres <fct>, m101.1 <int>, m101.2 <int>, m101.3 <int>,
#> #   m101.4 <int>, m101.5 <int>, m101.6 <int>, m103.1 <int>, m103.2 <int>,
#> #   m103.3 <int>, m103.4 <int>, m103.5 <int>, m103.6 <int>, m104.1 <int>,
#> #   m104.2 <int>, m104.3 <int>, m104.4 <int>, m104.5 <int>, m104.6 <int>,
#> #   m105.1 <int>, m105.2 <int>, m105.3 <int>, m105.4 <int>, m105.5 <int>,
…
